{
  "todos": [
    {
      "userId": 4,
      "id": 77,
      "title": "Il faut lancer",
      "completed": true
    },
    {
      "userId": 4,
      "id": 78,
      "title": "le server json",
      "completed": false
    },
    {
      "userId": 4,
      "id": 79,
      "title": "avec la commande",
      "completed": true
    },
    {
      "userId": 4,
      "id": 80,
      "title": "json-server --watch db.json",
      "completed": true
    },
    {
      "userId": 5,
      "id": 82,
      "title": "voluptates eum voluptas et dicta",
      "completed": false
    },
    {
      "userId": 5,
      "id": 83,
      "title": "quidem at rerum quis ex aut sit quam",
      "completed": true
    },
    {
      "userId": 5,
      "id": 84,
      "title": "sunt veritatis ut voluptate",
      "completed": false
    },
    {
      "userId": 5,
      "id": 85,
      "title": "et quia ad iste a",
      "completed": true
    },
    {
      "userId": 5,
      "id": 86,
      "title": "incidunt ut saepe autem",
      "completed": true
    },
    {
      "userId": 5,
      "id": 87,
      "title": "laudantium quae eligendi consequatur quia et vero autem",
      "completed": true
    },
    {
      "userId": 5,
      "id": 88,
      "title": "vitae aut excepturi laboriosam sint aliquam et et accusantium",
      "completed": false
    },
    {
      "userId": 5,
      "id": 89,
      "title": "sequi ut omnis et",
      "completed": true
    },
    {
      "userId": 5,
      "id": 90,
      "title": "molestiae nisi accusantium tenetur dolorem et",
      "completed": true
    },
    {
      "userId": 5,
      "id": 91,
      "title": "nulla quis consequatur saepe qui id expedita",
      "completed": true
    },
    {
      "userId": 5,
      "id": 92,
      "title": "in omnis laboriosam",
      "completed": true
    },
    {
      "userId": 5,
      "id": 93,
      "title": "odio iure consequatur molestiae quibusdam necessitatibus quia sint",
      "completed": true
    },
    {
      "userId": 5,
      "id": 94,
      "title": "facilis modi saepe mollitia",
      "completed": false
    },
    {
      "userId": 5,
      "id": 96,
      "title": "nobis suscipit ducimus enim asperiores voluptas",
      "completed": false
    },
    {
      "userId": 5,
      "id": 97,
      "title": "dolorum laboriosam eos qui iure aliquam",
      "completed": false
    },
    {
      "userId": 5,
      "id": 98,
      "title": "debitis accusantium ut quo facilis nihil quis sapiente necessitatibus",
      "completed": true
    },
    {
      "userId": 5,
      "id": 99,
      "title": "neque voluptates ratione",
      "completed": false
    },
    {
      "userId": 5,
      "id": 100,
      "title": "excepturi a et neque qui expedita vel voluptate",
      "completed": false
    },
    {
      "userId": 6,
      "id": 101,
      "title": "explicabo enim cumque porro aperiam occaecati minima",
      "completed": false
    },
    {
      "userId": "18",
      "id": 102,
      "title": "fuck",
      "completed": false
    },
    {
      "userId": 6,
      "id": 103,
      "title": "non sunt delectus illo nulla tenetur enim omnis",
      "completed": false
    },
    {
      "userId": 6,
      "id": 104,
      "title": "excepturi non laudantium quo",
      "completed": false
    },
    {
      "userId": 6,
      "id": 106,
      "title": "ad illo quis voluptatem temporibus",
      "completed": true
    },
    {
      "userId": 6,
      "id": 108,
      "title": "a eos eaque nihil et exercitationem incidunt delectus",
      "completed": true
    },
    {
      "userId": 6,
      "id": 110,
      "title": "aut aut ea corporis",
      "completed": true
    },
    {
      "userId": 6,
      "id": 112,
      "title": "consectetur impedit quisquam qui deserunt non rerum consequuntur eius",
      "completed": false
    },
    {
      "userId": 6,
      "id": 113,
      "title": "quia atque aliquam sunt impedit voluptatum rerum assumenda nisi",
      "completed": false
    },
    {
      "userId": 6,
      "id": 114,
      "title": "cupiditate quos possimus corporis quisquam exercitationem beatae",
      "completed": false
    },
    {
      "userId": 6,
      "id": 116,
      "title": "ipsa dolores vel facilis ut",
      "completed": true
    },
    {
      "userId": 6,
      "id": 117,
      "title": "sequi quae est et qui qui eveniet asperiores",
      "completed": false
    },
    {
      "userId": 6,
      "id": 119,
      "title": "corporis ducimus ea perspiciatis iste",
      "completed": false
    },
    {
      "userId": 6,
      "id": 120,
      "title": "dolorem laboriosam vel voluptas et aliquam quasi",
      "completed": false
    },
    {
      "userId": 7,
      "id": 122,
      "title": "provident aut nobis culpa",
      "completed": true
    },
    {
      "userId": 7,
      "id": 123,
      "title": "esse et quis iste est earum aut impedit",
      "completed": false
    },
    {
      "userId": 7,
      "id": 124,
      "title": "qui consectetur id",
      "completed": false
    },
    {
      "userId": 7,
      "id": 125,
      "title": "aut quasi autem iste tempore illum possimus",
      "completed": false
    }
  ]
}